# time       radius
0.000E+00  0.000E+00
9.978E+04  6.648E+01
9.978E+04  6.727E+01
9.978E+04  6.766E+01
1.098E+05  6.530E+01
1.098E+05  6.569E+01
1.098E+05  6.609E+01
1.098E+05  6.648E+01
1.098E+05  6.727E+01
1.098E+05  6.727E+01
1.098E+05  6.766E+01
1.098E+05  6.844E+01
1.098E+05  6.923E+01
1.098E+05  6.962E+01
1.197E+05  6.687E+01
1.197E+05  6.727E+01
1.197E+05  6.766E+01
1.197E+05  6.766E+01
1.197E+05  6.805E+01
1.197E+05  6.844E+01
1.197E+05  6.884E+01
1.197E+05  6.923E+01
1.197E+05  6.962E+01
1.297E+05  6.609E+01
1.297E+05  6.687E+01
1.297E+05  6.805E+01
1.397E+05  6.648E+01
1.397E+05  6.687E+01
1.397E+05  6.766E+01
1.397E+05  6.805E+01
1.397E+05  6.844E+01
1.397E+05  6.884E+01
1.397E+05  6.923E+01
1.497E+05  6.530E+01
1.497E+05  6.648E+01
