# time       radius
0.000E+00  0.000E+00
1.490E+04  2.019E+01
1.490E+04  2.042E+01
2.235E+04  1.974E+01
2.235E+04  2.268E+01
3.105E+04  2.245E+01
3.105E+04  2.493E+01
3.229E+04  2.177E+01
3.477E+04  2.268E+01
3.725E+04  2.110E+01
3.850E+04  2.064E+01
3.974E+04  1.974E+01
3.974E+04  2.561E+01
3.974E+04  2.809E+01
3.974E+04  2.832E+01
3.974E+04  2.855E+01
4.098E+04  2.538E+01
4.098E+04  2.809E+01
4.222E+04  2.538E+01
4.222E+04  2.719E+01
4.346E+04  2.493E+01
4.471E+04  2.448E+01
4.471E+04  2.629E+01
4.533E+04  2.606E+01
4.595E+04  2.403E+01
4.657E+04  2.561E+01
4.719E+04  2.561E+01
4.781E+04  2.561E+01
4.843E+04  2.538E+01
4.905E+04  2.087E+01
4.905E+04  2.516E+01
4.967E+04  2.516E+01
5.029E+04  2.493E+01
5.029E+04  3.080E+01
5.091E+04  2.493E+01
5.091E+04  3.080E+01
5.091E+04  3.261E+01
5.154E+04  2.471E+01
5.154E+04  3.080E+01
5.216E+04  2.448E+01
5.216E+04  3.261E+01
5.278E+04  2.268E+01
5.278E+04  2.403E+01
5.278E+04  2.426E+01
5.278E+04  2.448E+01
5.278E+04  3.035E+01
5.278E+04  3.058E+01
5.278E+04  3.216E+01
5.340E+04  2.403E+01
5.340E+04  3.193E+01
5.340E+04  3.216E+01
5.402E+04  2.358E+01
5.402E+04  3.216E+01
5.402E+04  3.238E+01
5.464E+04  2.335E+01
5.464E+04  2.990E+01
5.464E+04  3.013E+01
5.464E+04  3.035E+01
5.464E+04  3.080E+01
5.464E+04  3.261E+01
5.526E+04  1.952E+01
5.526E+04  2.335E+01
5.526E+04  3.013E+01
5.588E+04  2.290E+01
5.650E+04  2.290E+01
5.650E+04  2.313E+01
5.650E+04  2.990E+01
5.650E+04  3.171E+01
5.712E+04  2.245E+01
5.712E+04  2.990E+01
5.712E+04  3.171E+01
5.774E+04  2.200E+01
5.774E+04  2.222E+01
5.774E+04  2.990E+01
5.774E+04  3.148E+01
5.774E+04  3.171E+01
5.837E+04  2.155E+01
5.837E+04  2.177E+01
5.837E+04  2.990E+01
5.837E+04  3.171E+01
5.899E+04  2.155E+01
5.899E+04  2.177E+01
5.899E+04  2.945E+01
5.899E+04  3.125E+01
5.961E+04  2.155E+01
5.961E+04  2.945E+01
5.961E+04  3.125E+01
6.023E+04  1.974E+01
6.023E+04  2.132E+01
6.023E+04  3.103E+01
6.085E+04  2.064E+01
6.085E+04  2.087E+01
6.085E+04  2.945E+01
6.085E+04  3.103E+01
6.147E+04  2.064E+01
6.147E+04  3.103E+01
6.209E+04  2.042E+01
6.209E+04  2.900E+01
6.209E+04  3.080E+01
6.271E+04  2.900E+01
6.271E+04  3.080E+01
6.333E+04  2.900E+01
6.333E+04  3.058E+01
6.395E+04  2.900E+01
6.395E+04  3.080E+01
6.426E+04  3.058E+01
6.457E+04  3.058E+01
6.489E+04  1.952E+01
6.489E+04  2.900E+01
6.489E+04  3.080E+01
6.520E+04  2.900E+01
6.520E+04  3.058E+01
6.551E+04  3.058E+01
6.582E+04  3.058E+01
6.613E+04  3.058E+01
6.644E+04  1.997E+01
6.644E+04  2.132E+01
6.644E+04  3.058E+01
6.675E+04  2.042E+01
6.675E+04  2.155E+01
6.675E+04  2.855E+01
6.675E+04  3.035E+01
6.675E+04  3.848E+01
6.675E+04  3.870E+01
6.675E+04  3.893E+01
6.706E+04  2.064E+01
6.706E+04  2.177E+01
6.706E+04  3.035E+01
6.706E+04  3.667E+01
6.706E+04  3.848E+01
6.737E+04  2.087E+01
6.737E+04  3.058E+01
6.737E+04  3.667E+01
6.737E+04  3.938E+01
6.768E+04  2.132E+01
6.768E+04  2.268E+01
6.768E+04  2.335E+01
6.768E+04  2.358E+01
6.768E+04  3.035E+01
6.768E+04  3.645E+01
6.768E+04  3.803E+01
6.768E+04  3.848E+01
6.768E+04  3.870E+01
6.799E+04  3.013E+01
6.799E+04  3.622E+01
6.799E+04  3.667E+01
6.799E+04  3.803E+01
6.799E+04  3.712E+01
6.799E+04  3.848E+01
6.799E+04  3.870E+01
6.799E+04  3.893E+01
6.830E+04  2.177E+01
6.830E+04  3.035E+01
6.830E+04  3.645E+01
6.830E+04  3.870E+01
6.830E+04  3.893E+01
6.861E+04  3.035E+01
6.861E+04  3.645E+01
6.861E+04  3.893E+01
6.892E+04  2.222E+01
6.892E+04  3.013E+01
6.892E+04  3.690E+01
6.892E+04  3.848E+01
6.923E+04  3.013E+01
6.923E+04  3.667E+01
6.923E+04  3.690E+01
6.923E+04  3.848E+01
6.954E+04  2.990E+01
6.954E+04  3.667E+01
6.985E+04  2.990E+01
6.985E+04  3.893E+01
7.016E+04  2.967E+01
7.016E+04  3.712E+01
7.016E+04  3.893E+01
7.047E+04  2.967E+01
7.047E+04  3.667E+01
7.078E+04  2.967E+01
7.078E+04  3.667E+01
7.109E+04  2.967E+01
7.109E+04  3.893E+01
7.140E+04  2.967E+01
7.140E+04  3.712E+01
7.140E+04  3.870E+01
7.140E+04  3.893E+01
7.172E+04  2.967E+01
7.172E+04  2.990E+01
7.172E+04  3.712E+01
7.203E+04  2.967E+01
7.203E+04  3.667E+01
7.203E+04  3.916E+01
7.234E+04  2.945E+01
7.234E+04  3.848E+01
7.234E+04  3.870E+01
7.265E+04  2.922E+01
7.265E+04  3.870E+01
7.265E+04  3.893E+01
7.296E+04  2.945E+01
7.296E+04  3.893E+01
7.327E+04  2.922E+01
7.327E+04  2.945E+01
7.327E+04  3.893E+01
7.358E+04  2.922E+01
7.358E+04  3.870E+01
7.389E+04  2.900E+01
7.389E+04  3.870E+01
7.389E+04  3.893E+01
7.420E+04  2.922E+01
7.420E+04  3.893E+01
7.451E+04  2.900E+01
7.482E+04  2.922E+01
7.513E+04  2.900E+01
7.513E+04  2.922E+01
7.513E+04  2.945E+01
7.513E+04  3.848E+01
7.544E+04  2.877E+01
7.544E+04  3.848E+01
7.575E+04  2.877E+01
7.575E+04  3.825E+01
7.575E+04  3.848E+01
7.606E+04  2.855E+01
7.606E+04  3.848E+01
7.637E+04  2.855E+01
7.637E+04  2.877E+01
7.637E+04  2.900E+01
7.637E+04  3.848E+01
7.668E+04  2.855E+01
7.668E+04  2.900E+01
7.668E+04  3.622E+01
7.699E+04  2.832E+01
7.699E+04  3.645E+01
7.699E+04  3.803E+01
7.730E+04  2.832E+01
7.730E+04  3.622E+01
7.761E+04  2.855E+01
7.761E+04  3.622E+01
7.761E+04  3.803E+01
7.792E+04  2.809E+01
7.792E+04  3.622E+01
7.792E+04  3.803E+01
7.823E+04  2.809E+01
7.823E+04  3.622E+01
7.823E+04  3.803E+01
7.855E+04  2.809E+01
7.855E+04  3.803E+01
7.886E+04  2.787E+01
7.917E+04  2.787E+01
7.917E+04  3.622E+01
7.917E+04  3.803E+01
7.948E+04  2.787E+01
7.948E+04  3.622E+01
7.948E+04  3.803E+01
7.979E+04  2.764E+01
7.979E+04  3.622E+01
7.979E+04  3.803E+01
8.010E+04  2.358E+01
8.010E+04  2.764E+01
8.010E+04  3.825E+01
8.041E+04  2.584E+01
8.041E+04  2.742E+01
8.041E+04  3.803E+01
8.072E+04  2.742E+01
8.072E+04  3.848E+01
8.103E+04  2.064E+01
8.103E+04  2.742E+01
8.103E+04  3.848E+01
