# time       radius
0.000E+00  0.000E+00
9.935E+03  1.929E+01
9.935E+03  1.974E+01
9.935E+03  2.019E+01
3.229E+04  2.877E+01
3.229E+04  3.080E+01
3.974E+04  3.690E+01
3.974E+04  3.735E+01
4.222E+04  3.825E+01
4.471E+04  3.645E+01
4.719E+04  3.509E+01
4.843E+04  3.509E+01
5.091E+04  3.825E+01
5.216E+04  3.645E+01
5.216E+04  3.690E+01
5.340E+04  3.622E+01
5.340E+04  3.735E+01
5.464E+04  3.622E+01
5.464E+04  3.712E+01
5.464E+04  3.961E+01
5.588E+04  3.735E+01
5.588E+04  4.028E+01
5.588E+04  4.548E+01
5.712E+04  3.645E+01
7.948E+04  4.390E+01
8.010E+04  4.525E+01
8.196E+04  4.954E+01
8.258E+04  2.064E+01
8.320E+04  5.247E+01
8.444E+04  5.270E+01
8.506E+04  4.503E+01
8.506E+04  5.812E+01
8.569E+04  4.435E+01
8.631E+04  4.412E+01
8.631E+04  4.457E+01
8.693E+04  4.435E+01
8.693E+04  4.525E+01
8.693E+04  4.638E+01
8.693E+04  4.683E+01
8.693E+04  5.247E+01
8.693E+04  5.541E+01
8.693E+04  6.263E+01
8.755E+04  2.042E+01
8.755E+04  4.435E+01
8.817E+04  1.997E+01
8.817E+04  4.390E+01
8.817E+04  5.722E+01
8.879E+04  4.480E+01
8.941E+04  4.457E+01
9.003E+04  4.615E+01
9.003E+04  4.977E+01
9.065E+04  4.615E+01
9.065E+04  4.954E+01
9.065E+04  5.135E+01
9.127E+04  4.615E+01
9.127E+04  5.202E+01
9.314E+04  4.661E+01
9.314E+04  5.383E+01
9.438E+04  5.902E+01
9.500E+04  4.638E+01
9.748E+04  5.180E+01
9.748E+04  5.293E+01
9.810E+04  4.683E+01
9.810E+04  5.451E+01
9.810E+04  5.496E+01
9.935E+04  4.661E+01
9.935E+04  5.564E+01
1.006E+05  4.728E+01
1.012E+05  5.428E+01
1.025E+05  5.202E+01
1.025E+05  6.286E+01
1.031E+05  5.812E+01
1.031E+05  7.054E+01
1.043E+05  5.812E+01
1.043E+05  6.309E+01
1.049E+05  5.293E+01
1.049E+05  5.406E+01
1.056E+05  6.128E+01
1.062E+05  6.715E+01
1.068E+05  4.773E+01
1.068E+05  5.518E+01
1.068E+05  6.038E+01
1.074E+05  5.315E+01
1.074E+05  5.360E+01
1.074E+05  6.715E+01
1.080E+05  5.360E+01
1.080E+05  5.473E+01
1.087E+05  5.360E+01
1.087E+05  5.857E+01
1.087E+05  5.902E+01
1.093E+05  5.315E+01
1.093E+05  5.360E+01
1.093E+05  6.534E+01
1.099E+05  5.247E+01
1.099E+05  5.925E+01
1.105E+05  5.383E+01
1.105E+05  5.631E+01
1.111E+05  5.293E+01
1.111E+05  6.986E+01
1.111E+05  7.031E+01
1.118E+05  5.451E+01
1.124E+05  5.496E+01
1.130E+05  6.173E+01
1.136E+05  4.819E+01
1.136E+05  5.451E+01
1.136E+05  5.496E+01
1.136E+05  6.083E+01
1.136E+05  7.099E+01
1.142E+05  5.676E+01
1.149E+05  5.451E+01
1.149E+05  6.128E+01
1.155E+05  3.013E+01
1.155E+05  5.360E+01
1.161E+05  5.406E+01
1.161E+05  5.676E+01
1.161E+05  6.128E+01
1.167E+05  3.013E+01
1.167E+05  5.496E+01
1.167E+05  6.715E+01
1.174E+05  3.103E+01
1.174E+05  5.609E+01
1.174E+05  5.722E+01
1.180E+05  5.541E+01
1.180E+05  5.586E+01
1.186E+05  3.080E+01
1.186E+05  5.406E+01
1.186E+05  6.241E+01
1.192E+05  5.496E+01
1.192E+05  5.676E+01
1.192E+05  6.286E+01
1.192E+05  7.257E+01
1.192E+05  7.302E+01
1.198E+05  5.406E+01
1.198E+05  5.518E+01
1.198E+05  5.812E+01
1.211E+05  5.406E+01
1.211E+05  5.451E+01
1.211E+05  6.737E+01
1.217E+05  5.451E+01
1.217E+05  5.496E+01
1.217E+05  6.783E+01
1.217E+05  6.895E+01
1.223E+05  5.473E+01
1.223E+05  6.128E+01
1.229E+05  5.541E+01
1.229E+05  5.586E+01
1.229E+05  6.692E+01
1.236E+05  5.496E+01
1.236E+05  5.834E+01
1.236E+05  5.992E+01
1.242E+05  2.967E+01
1.242E+05  5.428E+01
1.248E+05  1.635E+01
1.248E+05  5.406E+01
1.248E+05  6.015E+01
1.254E+05  1.658E+01
1.254E+05  2.922E+01
1.254E+05  5.586E+01
1.254E+05  6.850E+01
1.260E+05  5.496E+01
1.260E+05  5.609E+01
1.267E+05  5.541E+01
1.267E+05  5.586E+01
1.267E+05  5.699E+01
1.267E+05  7.889E+01
1.273E+05  6.941E+01
1.279E+05  5.541E+01
1.279E+05  5.586E+01
1.279E+05  6.489E+01
1.279E+05  6.534E+01
1.285E+05  6.399E+01
1.285E+05  6.647E+01
1.285E+05  8.927E+01
1.291E+05  5.541E+01
1.291E+05  5.586E+01
1.291E+05  5.857E+01
1.291E+05  6.760E+01
1.298E+05  5.586E+01
1.298E+05  6.105E+01
1.298E+05  6.534E+01
1.304E+05  6.399E+01
1.304E+05  6.512E+01
1.316E+05  5.518E+01
1.323E+05  5.541E+01
1.323E+05  6.625E+01
1.323E+05  6.670E+01
1.323E+05  6.873E+01
1.329E+05  5.564E+01
1.335E+05  5.631E+01
1.335E+05  5.676E+01
1.335E+05  5.789E+01
1.347E+05  5.676E+01
1.347E+05  6.263E+01
1.347E+05  6.963E+01
1.347E+05  7.166E+01
1.347E+05  7.212E+01
1.354E+05  5.744E+01
1.354E+05  6.263E+01
1.354E+05  6.309E+01
1.354E+05  6.421E+01
1.360E+05  6.941E+01
1.372E+05  5.586E+01
1.372E+05  5.631E+01
1.372E+05  5.812E+01
1.372E+05  6.309E+01
1.378E+05  6.512E+01
1.385E+05  5.722E+01
1.385E+05  6.354E+01
1.385E+05  6.805E+01
1.391E+05  5.767E+01
1.391E+05  7.031E+01
1.397E+05  6.715E+01
1.397E+05  8.837E+01
1.403E+05  6.376E+01
1.403E+05  6.602E+01
1.409E+05  6.286E+01
1.409E+05  7.031E+01
1.422E+05  6.579E+01
1.422E+05  7.031E+01
1.428E+05  6.647E+01
1.453E+05  6.850E+01
1.459E+05  5.722E+01
1.459E+05  6.760E+01
1.459E+05  6.805E+01
1.459E+05  7.076E+01
1.459E+05  7.189E+01
1.459E+05  7.415E+01
1.465E+05  6.579E+01
1.465E+05  6.625E+01
1.484E+05  6.760E+01
1.484E+05  7.370E+01
1.490E+05  6.557E+01
1.496E+05  6.376E+01
1.496E+05  6.489E+01
1.496E+05  6.534E+01
1.496E+05  7.144E+01
1.503E+05  6.579E+01
1.509E+05  7.257E+01
1.509E+05  8.024E+01
1.515E+05  6.534E+01
1.521E+05  6.715E+01
1.521E+05  6.760E+01
1.521E+05  7.099E+01
1.521E+05  9.176E+01
1.534E+05  5.812E+01
1.534E+05  6.579E+01
1.534E+05  7.031E+01
1.534E+05  7.076E+01
1.540E+05  6.354E+01
1.540E+05  6.918E+01
1.540E+05  7.979E+01
1.546E+05  6.354E+01
1.546E+05  6.602E+01
1.546E+05  7.957E+01
1.546E+05  8.205E+01
1.552E+05  6.579E+01
1.552E+05  6.625E+01
