# time       radius
0.000E+00  0.000E+00
9.978E+03  4.141E+01
1.497E+04  3.983E+01
1.497E+04  4.209E+01
1.497E+04  4.412E+01
1.996E+04  4.141E+01
1.996E+04  4.186E+01
1.996E+04  4.503E+01
1.996E+04  5.022E+01
1.996E+04  5.270E+01
2.494E+04  4.028E+01
2.494E+04  5.112E+01
2.494E+04  5.902E+01
2.993E+04  4.096E+01
2.993E+04  4.209E+01
2.993E+04  4.457E+01
2.993E+04  4.503E+01
2.993E+04  4.683E+01
2.993E+04  4.728E+01
2.993E+04  5.834E+01
2.993E+04  6.760E+01
2.993E+04  6.805E+01
2.993E+04  6.918E+01
3.492E+04  3.803E+01
3.492E+04  4.028E+01
3.492E+04  4.232E+01
3.492E+04  4.277E+01
3.492E+04  5.496E+01
3.492E+04  5.902E+01
3.492E+04  7.460E+01
3.991E+04  4.232E+01
3.991E+04  4.457E+01
3.991E+04  5.428E+01
3.991E+04  6.196E+01
3.991E+04  6.354E+01
3.991E+04  6.467E+01
4.490E+04  3.509E+01
4.490E+04  4.232E+01
4.490E+04  6.196E+01
4.490E+04  6.309E+01
4.490E+04  6.670E+01
4.490E+04  7.054E+01
4.490E+04  7.257E+01
4.989E+04  6.151E+01
4.989E+04  6.263E+01
4.989E+04  6.309E+01
4.989E+04  7.076E+01
4.989E+04  7.121E+01
4.989E+04  7.234E+01
4.989E+04  7.528E+01
5.488E+04  3.916E+01
5.488E+04  4.096E+01
5.488E+04  4.141E+01
5.488E+04  5.541E+01
5.488E+04  5.812E+01
5.488E+04  6.963E+01
5.488E+04  7.054E+01
5.488E+04  7.640E+01
5.488E+04  8.002E+01
5.987E+04  3.532E+01
5.987E+04  3.825E+01
5.987E+04  7.279E+01
5.987E+04  7.392E+01
5.987E+04  7.573E+01
5.987E+04  7.776E+01
5.987E+04  8.024E+01
6.486E+04  3.532E+01
6.486E+04  3.622E+01
6.486E+04  5.767E+01
6.486E+04  7.798E+01
6.486E+04  7.844E+01
6.486E+04  8.431E+01
6.486E+04  8.882E+01
6.486E+04  8.927E+01
6.984E+04  6.647E+01
6.984E+04  7.731E+01
6.984E+04  8.069E+01
6.984E+04  8.182E+01
7.483E+04  3.058E+01
7.483E+04  6.760E+01
7.483E+04  7.008E+01
7.483E+04  7.392E+01
7.483E+04  7.640E+01
7.483E+04  8.047E+01
7.483E+04  8.205E+01
7.982E+04  6.715E+01
7.982E+04  7.008E+01
7.982E+04  7.370E+01
7.982E+04  7.776E+01
7.982E+04  7.866E+01
7.982E+04  7.979E+01
7.982E+04  8.024E+01
7.982E+04  8.905E+01
8.481E+04  7.392E+01
8.481E+04  7.640E+01
8.481E+04  8.431E+01
8.481E+04  8.656E+01
8.481E+04  8.702E+01
8.980E+04  6.421E+01
8.980E+04  6.895E+01
8.980E+04  7.144E+01
8.980E+04  7.257E+01
8.980E+04  7.415E+01
8.980E+04  7.686E+01
8.980E+04  8.002E+01
8.980E+04  8.476E+01
8.980E+04  8.724E+01
8.980E+04  8.837E+01
9.479E+04  7.753E+01
9.479E+04  8.227E+01
9.479E+04  8.543E+01
9.479E+04  8.860E+01
9.978E+04  7.099E+01
9.978E+04  7.550E+01
9.978E+04  8.115E+01
9.978E+04  8.160E+01
9.978E+04  8.363E+01
9.978E+04  8.656E+01
9.978E+04  8.972E+01
1.048E+05  6.963E+01
1.048E+05  7.573E+01
1.048E+05  7.934E+01
1.048E+05  8.318E+01
1.098E+05  7.482E+01
1.098E+05  7.708E+01
1.098E+05  8.363E+01
1.098E+05  8.453E+01
1.098E+05  9.198E+01
1.098E+05  9.243E+01
1.147E+05  7.324E+01
1.147E+05  7.708E+01
1.147E+05  9.334E+01
1.147E+05  9.379E+01
1.147E+05  9.830E+01
1.197E+05  7.437E+01
1.197E+05  8.566E+01
1.197E+05  8.611E+01
1.197E+05  8.882E+01
1.247E+05  7.279E+01
1.247E+05  7.640E+01
1.247E+05  7.889E+01
1.247E+05  8.250E+01
1.247E+05  8.431E+01
1.247E+05  8.476E+01
1.247E+05  8.837E+01
1.247E+05  8.882E+01
1.247E+05  8.927E+01
1.297E+05  7.844E+01
1.297E+05  8.069E+01
1.297E+05  8.115E+01
1.297E+05  8.227E+01
1.297E+05  9.243E+01
1.297E+05  9.356E+01
1.347E+05  7.528E+01
1.347E+05  7.934E+01
1.347E+05  8.182E+01
1.347E+05  8.385E+01
1.397E+05  7.257E+01
1.397E+05  7.302E+01
1.397E+05  7.528E+01
1.397E+05  7.573E+01
1.397E+05  7.618E+01
1.397E+05  7.663E+01
1.397E+05  7.889E+01
1.397E+05  8.273E+01
1.397E+05  9.627E+01
1.447E+05  7.324E+01
1.447E+05  7.753E+01
1.447E+05  7.798E+01
1.447E+05  8.160E+01
1.447E+05  8.205E+01
1.447E+05  9.311E+01
1.497E+05  7.528E+01
1.497E+05  7.708E+01
1.497E+05  7.753E+01
1.497E+05  7.934E+01
1.497E+05  8.340E+01
1.497E+05  8.656E+01
1.547E+05  7.392E+01
1.547E+05  7.640E+01
1.547E+05  7.866E+01
1.547E+05  8.792E+01
1.596E+05  7.844E+01
1.596E+05  7.889E+01
1.646E+05  7.482E+01
1.646E+05  7.798E+01
1.696E+05  7.279E+01
1.696E+05  7.437E+01
1.696E+05  7.731E+01
1.696E+05  7.844E+01
1.696E+05  7.979E+01
1.746E+05  7.663E+01
1.746E+05  7.708E+01
1.746E+05  7.753E+01
1.746E+05  7.798E+01
1.796E+05  7.482E+01
1.846E+05  7.934E+01
1.846E+05  7.979E+01
1.896E+05  7.370E+01
1.896E+05  7.528E+01
1.896E+05  7.753E+01
1.946E+05  7.573E+01
1.946E+05  7.618E+01
1.946E+05  7.663E+01
1.946E+05  7.708E+01
1.996E+05  7.866E+01
2.045E+05  7.663E+01
2.145E+05  7.708E+01
2.145E+05  7.753E+01
2.195E+05  7.618E+01
2.195E+05  8.002E+01
2.245E+05  7.731E+01
2.245E+05  7.844E+01
2.295E+05  7.686E+01
2.295E+05  7.798E+01
2.295E+05  7.844E+01
2.345E+05  7.753E+01
2.395E+05  7.663E+01
2.395E+05  7.821E+01
2.445E+05  7.618E+01
2.445E+05  7.821E+01
2.470E+05  7.844E+01
2.494E+05  7.866E+01
2.519E+05  7.663E+01
2.544E+05  7.573E+01
2.594E+05  7.708E+01
2.594E+05  7.753E+01
2.619E+05  7.731E+01
2.644E+05  7.798E+01
2.669E+05  7.640E+01
2.694E+05  7.550E+01
2.694E+05  7.663E+01
2.694E+05  7.708E+01
2.744E+05  7.528E+01
2.769E+05  7.663E+01
2.819E+05  7.708E+01
2.869E+05  7.550E+01
2.894E+05  7.640E+01
2.919E+05  7.437E+01
2.919E+05  7.550E+01
