# time       radius
0.000E+00  0.000E+00
2.732E+04  2.651E+01
2.980E+04  3.216E+01
3.291E+04  2.900E+01
3.415E+04  3.103E+01
3.477E+04  2.990E+01
3.477E+04  3.103E+01
3.477E+04  3.961E+01
3.539E+04  2.967E+01
3.539E+04  3.080E+01
3.601E+04  2.877E+01
3.601E+04  2.990E+01
3.601E+04  3.193E+01
3.663E+04  3.171E+01
3.725E+04  3.013E+01
3.725E+04  3.058E+01
3.788E+04  2.967E+01
3.850E+04  3.509E+01
3.912E+04  3.306E+01
4.036E+04  3.283E+01
4.036E+04  3.509E+01
4.036E+04  3.554E+01
4.036E+04  3.599E+01
4.098E+04  3.238E+01
4.098E+04  3.532E+01
4.160E+04  3.283E+01
4.160E+04  3.464E+01
4.160E+04  3.509E+01
4.222E+04  3.735E+01
4.284E+04  3.374E+01
4.284E+04  3.735E+01
4.346E+04  3.599E+01
4.346E+04  3.645E+01
4.346E+04  3.758E+01
4.408E+04  3.509E+01
4.471E+04  3.419E+01
4.533E+04  3.848E+01
4.533E+04  4.006E+01
4.595E+04  3.441E+01
4.657E+04  3.396E+01
4.657E+04  3.916E+01
4.719E+04  3.916E+01
4.719E+04  4.074E+01
4.781E+04  3.329E+01
4.781E+04  3.532E+01
4.781E+04  3.645E+01
4.781E+04  3.803E+01
4.843E+04  3.464E+01
4.843E+04  3.509E+01
4.843E+04  3.916E+01
4.967E+04  3.374E+01
4.967E+04  4.028E+01
5.029E+04  1.703E+01
5.029E+04  4.457E+01
5.216E+04  3.419E+01
5.340E+04  3.938E+01
5.340E+04  4.254E+01
5.464E+04  4.186E+01
5.526E+04  3.983E+01
5.650E+04  6.263E+01
5.712E+04  4.006E+01
5.774E+04  3.961E+01
5.774E+04  4.006E+01
5.899E+04  3.983E+01
5.961E+04  3.983E+01
6.023E+04  4.006E+01
6.023E+04  4.051E+01
6.147E+04  3.938E+01
6.209E+04  4.051E+01
6.271E+04  4.051E+01
6.333E+04  3.938E+01
6.333E+04  4.051E+01
6.333E+04  4.096E+01
6.395E+04  6.173E+01
6.457E+04  5.089E+01
6.520E+04  3.983E+01
6.706E+04  3.961E+01
6.737E+04  4.819E+01
6.768E+04  6.354E+01
6.768E+04  6.399E+01
6.861E+04  5.360E+01
6.861E+04  5.406E+01
6.892E+04  5.902E+01
6.985E+04  6.128E+01
7.016E+04  1.658E+01
7.016E+04  5.428E+01
7.047E+04  6.579E+01
7.078E+04  1.703E+01
7.109E+04  5.631E+01
7.109E+04  6.421E+01
7.234E+04  5.880E+01
7.265E+04  1.929E+01
7.265E+04  4.819E+01
7.296E+04  1.929E+01
7.296E+04  5.180E+01
7.327E+04  1.929E+01
7.327E+04  4.638E+01
7.358E+04  1.929E+01
7.358E+04  6.083E+01
7.451E+04  4.773E+01
7.451E+04  4.819E+01
7.451E+04  6.489E+01
7.637E+04  4.683E+01
7.637E+04  4.728E+01
7.668E+04  4.683E+01
7.668E+04  5.541E+01
7.699E+04  6.354E+01
7.761E+04  1.703E+01
7.792E+04  5.676E+01
7.823E+04  1.748E+01
7.855E+04  4.909E+01
7.948E+04  1.726E+01
7.948E+04  5.202E+01
7.948E+04  6.692E+01
7.948E+04  6.805E+01
8.010E+04  4.728E+01
8.010E+04  5.383E+01
8.010E+04  6.783E+01
8.072E+04  4.683E+01
8.103E+04  6.083E+01
8.103E+04  6.128E+01
8.134E+04  4.706E+01
8.134E+04  6.331E+01
8.134E+04  6.805E+01
8.165E+04  4.841E+01
8.196E+04  4.683E+01
8.196E+04  4.728E+01
8.196E+04  4.773E+01
8.196E+04  4.819E+01
8.227E+04  4.706E+01
8.227E+04  5.970E+01
8.258E+04  4.706E+01
8.258E+04  7.708E+01
8.289E+04  4.819E+01
8.289E+04  6.715E+01
8.320E+04  4.751E+01
8.320E+04  5.406E+01
8.320E+04  5.902E+01
8.351E+04  4.706E+01
8.351E+04  6.421E+01
8.351E+04  6.534E+01
8.351E+04  6.579E+01
8.382E+04  4.638E+01
8.382E+04  4.909E+01
8.413E+04  4.751E+01
8.444E+04  4.751E+01
8.475E+04  4.728E+01
8.475E+04  6.963E+01
8.506E+04  4.751E+01
8.506E+04  6.354E+01
8.538E+04  4.751E+01
8.538E+04  5.541E+01
8.538E+04  5.586E+01
8.538E+04  5.947E+01
8.600E+04  4.773E+01
8.693E+04  5.812E+01
8.755E+04  4.728E+01
8.755E+04  4.773E+01
8.786E+04  4.751E+01
8.786E+04  5.293E+01
8.786E+04  5.518E+01
8.786E+04  5.925E+01
8.817E+04  4.773E+01
8.848E+04  5.541E+01
8.848E+04  5.947E+01
8.848E+04  6.105E+01
8.848E+04  6.895E+01
8.879E+04  4.751E+01
8.910E+04  6.670E+01
8.972E+04  5.902E+01
9.065E+04  7.370E+01
9.065E+04  1.249E+02
9.096E+04  6.670E+01
9.127E+04  5.902E+01
9.127E+04  5.947E+01
9.127E+04  7.437E+01
9.158E+04  6.218E+01
9.158E+04  6.625E+01
9.189E+04  5.676E+01
9.189E+04  6.421E+01
9.189E+04  9.469E+01
9.252E+04  5.744E+01
9.252E+04  6.760E+01
9.283E+04  6.828E+01
9.314E+04  6.444E+01
9.314E+04  7.257E+01
9.314E+04  7.302E+01
9.345E+04  5.406E+01
9.345E+04  5.451E+01
9.345E+04  6.128E+01
9.407E+04  5.722E+01
9.407E+04  6.218E+01
9.438E+04  6.828E+01
9.469E+04  2.313E+01
9.500E+04  6.534E+01
9.531E+04  5.428E+01
9.562E+04  6.218E+01
9.593E+04  2.200E+01
9.593E+04  2.245E+01
9.624E+04  2.290E+01
9.624E+04  5.586E+01
9.655E+04  5.406E+01
9.655E+04  9.898E+01
9.686E+04  2.200E+01
9.686E+04  5.541E+01
9.686E+04  7.798E+01
9.717E+04  5.406E+01
9.748E+04  5.586E+01
