# time       radius
0.000E+00  0.000E+00
1.490E+04  2.268E+01
3.477E+04  3.148E+01
3.477E+04  3.261E+01
4.471E+04  4.006E+01
4.471E+04  4.051E+01
5.464E+04  3.870E+01
8.693E+04  4.480E+01
1.118E+05  4.931E+01
1.142E+05  4.773E+01
1.291E+05  5.270E+01
1.316E+05  5.270E+01
1.441E+05  6.128E+01
1.639E+05  6.173E+01
1.689E+05  6.309E+01
1.689E+05  6.760E+01
1.838E+05  6.218E+01
1.912E+05  7.708E+01
1.962E+05  6.263E+01
2.012E+05  7.121E+01
2.186E+05  7.257E+01
2.260E+05  8.024E+01
2.508E+05  6.895E+01
2.508E+05  7.392E+01
2.707E+05  6.692E+01
2.831E+05  7.776E+01
2.856E+05  7.392E+01
2.856E+05  7.640E+01
2.856E+05  9.018E+01
2.881E+05  9.288E+01
2.881E+05  9.334E+01
2.931E+05  7.934E+01
2.931E+05  8.476E+01
2.980E+05  8.747E+01
2.980E+05  1.010E+02
2.980E+05  1.015E+02
3.005E+05  7.166E+01
3.005E+05  7.618E+01
3.030E+05  8.476E+01
3.080E+05  7.753E+01
3.105E+05  7.257E+01
3.105E+05  8.340E+01
3.105E+05  9.198E+01
3.105E+05  1.055E+02
3.129E+05  9.921E+01
3.129E+05  9.966E+01
3.154E+05  8.137E+01
3.154E+05  8.295E+01
3.154E+05  9.018E+01
3.154E+05  9.063E+01
3.154E+05  9.921E+01
3.179E+05  7.844E+01
3.179E+05  1.010E+02
3.204E+05  7.798E+01
3.204E+05  7.844E+01
3.204E+05  7.957E+01
3.204E+05  9.921E+01
3.254E+05  1.017E+02
3.254E+05  1.042E+02
3.278E+05  7.257E+01
3.278E+05  7.889E+01
3.278E+05  1.046E+02
3.278E+05  1.058E+02
3.303E+05  8.927E+01
3.353E+05  9.424E+01
3.353E+05  9.469E+01
3.353E+05  9.514E+01
3.353E+05  9.627E+01
3.378E+05  7.776E+01
3.378E+05  1.078E+02
3.403E+05  8.205E+01
3.403E+05  8.882E+01
3.403E+05  8.927E+01
3.403E+05  1.006E+02
3.427E+05  7.460E+01
3.427E+05  7.708E+01
3.452E+05  8.250E+01
3.452E+05  8.295E+01
3.452E+05  9.921E+01
3.477E+05  7.370E+01
3.477E+05  7.821E+01
3.477E+05  8.137E+01
3.477E+05  9.988E+01
3.502E+05  7.618E+01
3.502E+05  8.611E+01
3.502E+05  1.026E+02
3.502E+05  1.042E+02
3.527E+05  1.051E+02
3.576E+05  7.753E+01
3.576E+05  1.028E+02
3.601E+05  7.753E+01
3.601E+05  1.060E+02
3.626E+05  7.686E+01
3.626E+05  8.498E+01
3.626E+05  9.943E+01
3.651E+05  8.205E+01
3.651E+05  8.498E+01
3.651E+05  8.792E+01
3.651E+05  9.018E+01
3.651E+05  9.288E+01
3.651E+05  1.037E+02
3.676E+05  8.814E+01
3.701E+05  8.927E+01
3.701E+05  8.972E+01
3.701E+05  9.853E+01
3.701E+05  1.015E+02
3.725E+05  7.482E+01
3.725E+05  8.340E+01
3.725E+05  8.476E+01
3.725E+05  8.724E+01
