# time       radius
0.000E+00  0.000E+00
3.105E+04  3.216E+01
3.105E+04  3.329E+01
3.105E+04  3.893E+01
3.229E+04  4.006E+01
3.353E+04  2.742E+01
3.353E+04  2.787E+01
3.353E+04  3.306E+01
3.353E+04  4.096E+01
3.477E+04  2.764E+01
3.477E+04  3.125E+01
3.601E+04  2.742E+01
3.601E+04  2.787E+01
3.725E+04  2.719E+01
3.725E+04  2.809E+01
3.725E+04  4.457E+01
3.850E+04  3.441E+01
3.850E+04  3.667E+01
4.098E+04  3.058E+01
4.098E+04  3.825E+01
4.098E+04  3.870E+01
4.471E+04  3.058E+01
4.471E+04  3.238E+01
4.471E+04  4.119E+01
4.595E+04  3.238E+01
4.843E+04  3.374E+01
4.967E+04  3.554E+01
4.967E+04  3.599E+01
5.091E+04  3.148E+01
5.216E+04  3.148E+01
5.278E+04  3.803E+01
5.278E+04  4.909E+01
5.340E+04  3.622E+01
5.340E+04  4.074E+01
5.402E+04  3.961E+01
5.464E+04  2.245E+01
5.464E+04  4.074E+01
5.464E+04  4.186E+01
5.588E+04  3.870E+01
5.588E+04  3.916E+01
5.650E+04  2.155E+01
5.650E+04  4.141E+01
5.712E+04  4.209E+01
5.712E+04  4.683E+01
5.774E+04  3.690E+01
5.774E+04  3.848E+01
5.774E+04  3.938E+01
5.837E+04  4.006E+01
5.899E+04  3.848E+01
5.899E+04  4.209E+01
5.961E+04  5.360E+01
6.023E+04  3.848E+01
6.023E+04  4.074E+01
6.147E+04  3.870E+01
6.147E+04  6.444E+01
6.209E+04  3.825E+01
6.395E+04  4.322E+01
6.395E+04  5.676E+01
7.265E+04  1.703E+01
7.265E+04  1.974E+01
7.265E+04  2.877E+01
7.327E+04  1.748E+01
7.451E+04  1.748E+01
7.451E+04  1.793E+01
7.575E+04  6.083E+01
7.637E+04  1.703E+01
7.637E+04  5.902E+01
7.761E+04  2.313E+01
7.761E+04  6.038E+01
7.792E+04  1.635E+01
7.792E+04  1.748E+01
7.792E+04  1.793E+01
